…
Result:
	# A tibble: 306 × 7
	   USUBJID     AGEGR9 AGEGR9N TRTSDTM             TRTSTMF ITTFL LSTAVLDT  
	   <chr>       <chr>    <int> <dttm>              <chr>   <chr> <date>    
	 1 01-701-1015 >50          3 2014-01-02 00:00:00 H       Y     2014-07-02
	 2 01-701-1023 >50          3 2012-08-05 00:00:00 H       Y     2013-02-18
	 3 01-701-1028 >50          3 2013-07-19 00:00:00 H       Y     2014-01-14
	 4 01-701-1033 >50          3 2014-03-18 00:00:00 H       Y     2014-09-15
	 5 01-701-1034 >50          3 2014-07-01 00:00:00 H       Y     2014-12-30
	 6 01-701-1047 >50          3 2013-02-12 00:00:00 H       Y     2013-07-28
	 7 01-701-1057 >50          3 NA                  <NA>    Y     2013-12-20
	 8 01-701-1097 >50          3 2014-01-01 00:00:00 H       Y     2014-07-09
	 9 01-701-1111 >50          3 2012-09-07 00:00:00 H       Y     2013-02-22
	10 01-701-1115 >50          3 2012-11-30 00:00:00 H       Y     2013-05-20
	# ℹ 296 more rows
…
