…
Result:
	# A tibble: 850 × 12
	   STUDYID      DOMAIN USUBJID   DSSEQ DSTERM DSDECOD DSCAT VISITNUM VISIT DSDTC
	   <chr>        <chr>  <chr>     <int> <chr>  <chr>   <chr> <chr>    <chr> <iso>
	 1 CDISCPILOT01 DS     01-701-1…     1 FINAL… Final … DISP… 13       WEEK… 2014…
	 2 CDISCPILOT01 DS     01-701-1…     2 PROTO… COMPLE… DISP… 13       WEEK… 2014…
	 3 CDISCPILOT01 DS     01-701-1…     3 RANDO… RANDOM… PROT… 3        BASE… 2014…
	 4 CDISCPILOT01 DS     01-701-1…     1 ADVER… ADVERS… DISP… 5        WEEK… 2012…
	 5 CDISCPILOT01 DS     01-701-1…     2 FINAL… Final … DISP… 5        WEEK… 2012…
	 6 CDISCPILOT01 DS     01-701-1…     3 FINAL… Final … DISP… 201      RETR… 2013…
	 7 CDISCPILOT01 DS     01-701-1…     4 RANDO… RANDOM… PROT… 3        BASE… 2012…
	 8 CDISCPILOT01 DS     01-701-1…     1 FINAL… Final … DISP… 13       WEEK… 2014…
	 9 CDISCPILOT01 DS     01-701-1…     2 PROTO… COMPLE… DISP… 13       WEEK… 2014…
	10 CDISCPILOT01 DS     01-701-1…     3 RANDO… RANDOM… PROT… 3        BASE… 2013…
	# ℹ 840 more rows
	# ℹ 2 more variables: DSSTDTC <date>, DSSTDY <int>
…
